<?xml version="1.0" encoding="UTF-8" standalone="no"?>
<!-- Created with Inkscape (http://www.inkscape.org/) -->

<svg
   xmlns:dc="http://purl.org/dc/elements/1.1/"
   xmlns:cc="http://creativecommons.org/ns#"
   xmlns:rdf="http://www.w3.org/1999/02/22-rdf-syntax-ns#"
   xmlns:svg="http://www.w3.org/2000/svg"
   xmlns="http://www.w3.org/2000/svg"
   xmlns:sodipodi="http://sodipodi.sourceforge.net/DTD/sodipodi-0.dtd"
   xmlns:inkscape="http://www.inkscape.org/namespaces/inkscape"
   width="1014"
   height="520"
   id="svg2"
   version="1.1"
   inkscape:version="0.91 r13725"
   sodipodi:docname="hosted-gitea-wordmark.svg"
   inkscape:export-filename="files/rebrand-A/icon.png"
   inkscape:export-xdpi="90"
   inkscape:export-ydpi="90">
  <defs
     id="defs4" />
  <sodipodi:namedview
     id="base"
     pagecolor="#ffffff"
     bordercolor="#666666"
     borderopacity="1.0"
     inkscape:pageopacity="0.0"
     inkscape:pageshadow="2"
     inkscape:zoom="0.70710678"
     inkscape:cx="620.64953"
     inkscape:cy="298.2376"
     inkscape:document-units="px"
     inkscape:current-layer="layer1"
     showgrid="false"
     borderlayer="true"
     inkscape:showpageshadow="false"
     inkscape:window-width="1920"
     inkscape:window-height="1080"
     inkscape:window-x="0"
     inkscape:window-y="0"
     inkscape:window-maximized="1"
     fit-margin-top="0"
     fit-margin-left="0"
     fit-margin-right="0"
     fit-margin-bottom="0" />
  <metadata
     id="metadata7">
    <rdf:RDF>
      <cc:Work
         rdf:about="">
        <dc:format>image/svg+xml</dc:format>
        <dc:type
           rdf:resource="http://purl.org/dc/dcmitype/StillImage" />
        <dc:title />
      </cc:Work>
    </rdf:RDF>
  </metadata>
  <g
     inkscape:label="Layer 1"
     inkscape:groupmode="layer"
     id="layer1"
     transform="translate(-4,-562.36218)">
    <rect
       style="opacity:1;fill:#f9f9f9;fill-opacity:1;stroke:none;stroke-width:7;stroke-linecap:round;stroke-linejoin:round;stroke-miterlimit:4;stroke-dasharray:none;stroke-dashoffset:0;stroke-opacity:1"
       id="rect4244"
       width="1014"
       height="520"
       x="4"
       y="562.36218" />
    <g
       id="g2989-0"
       transform="matrix(0.43125844,0,0,0.43125844,779.25104,595.94872)">
      <path
         sodipodi:nodetypes="ccssssssscssscscsssssssssscscssssssssssscscc"
         inkscape:connector-curvature="0"
         id="path2996-8"
         d="m 276.2582,1007.7459 0.95131,-18.20819 17.44646,-2.39214 c 61.43178,-8.42299 133.22751,-29.4492 133.22751,-39.01723 0,-2.42661 -8.20777,-9.98977 -18.23949,-16.80703 -29.05529,-19.74514 -51.54635,-38.4067 -51.54635,-42.76971 0,-2.2151 8.00475,-6.74835 17.78831,-10.0739 18.18835,-6.18243 24.74394,-13.07188 16.80164,-17.6574 -2.45034,-1.41472 -13.63599,-9.29402 -24.85698,-17.50952 l -20.40186,-14.93731 6.9205,-5.60387 c 3.80625,-3.08216 6.92047,-7.55555 6.92047,-9.9409 0,-2.38537 -8.74705,-12.0365 -19.43789,-21.44699 l -19.43789,-17.10994 9.95022,-8.17934 c 5.47264,-4.49865 9.93738,-9.56192 9.92165,-11.2517 -0.0159,-1.6898 -7.52264,-10.69804 -16.68203,-20.01832 -16.05921,-16.3413 -16.42707,-17.10498 -10.30927,-21.40309 15.3599,-10.79127 15.42328,-10.38071 -5.03831,-32.63811 -30.43271,-33.10364 -55.56241,-73.39703 -66.14365,-106.05595 -5.50033,-16.97679 -11.23285,-14.77981 -17.23301,6.60453 -7.89731,28.14587 -30.78992,72.43104 -50.72282,98.1221 -9.83416,12.67504 -17.88031,24.34779 -17.88031,25.93946 0,1.59169 3.5686,5.70102 7.93021,9.13185 4.36162,3.43086 7.93021,7.48609 7.93021,9.01161 0,1.52554 -5.70975,9.68329 -12.68834,18.12836 -6.97857,8.44504 -12.70121,16.26977 -12.71691,17.38829 -0.0159,1.11854 4.62344,5.88068 10.30927,10.58257 l 10.33786,8.54889 -16.65344,16.9275 c -17.72354,18.01525 -20.57709,26.15751 -10.30927,29.41639 10.80357,3.42893 7.14172,10.36849 -14.40735,27.30326 -11.41335,8.96938 -20.2561,17.91495 -19.65058,19.87904 0.60551,1.96406 9.94371,6.37195 20.75151,9.79529 10.80782,3.42332 19.65058,7.7593 19.65058,9.63549 0,3.9457 -22.69521,26.12601 -46.78823,45.7267 -9.15939,7.45154 -16.653437,14.80614 -16.653437,16.34353 0,1.53738 3.925452,4.78023 8.723227,7.20631 14.77474,7.47117 86.47179,24.39278 111.70302,26.36365 27.10383,2.11715 31.83376,5.59265 31.83376,23.39122 0,6.3543 0.95163,12.505 2.11473,13.6681 1.16305,1.1631 9.65646,2.1147 18.87415,2.1147 l 16.75948,0 z"
         style="fill:#131c28" />
      <path
         inkscape:connector-curvature="0"
         id="path2998-5"
         d="m 154.27259,811.77109 33.64503,-27.23645 8.01071,11.215 z"
         style="fill:#ffffff;stroke:none" />
      <path
         inkscape:connector-curvature="0"
         id="path3768-1"
         d="m 188.63914,735.45232 6.14432,13.90194 -31.59811,6.21072 z"
         style="fill:#ffffff;stroke:none" />
      <path
         sodipodi:nodetypes="cccc"
         style="fill:#ffffff;stroke:none"
         d="m 183.88866,696.49724 24.58193,-32.90089 3.47918,13.48076 z"
         id="path3770-6"
         inkscape:connector-curvature="0" />
      <path
         style="fill:#ffffff;stroke:none"
         d="m 176.51917,833.02498 10.5717,17.95218 -43.66078,12.55317 z"
         id="path3772-6"
         inkscape:connector-curvature="0" />
      <path
         inkscape:connector-curvature="0"
         id="path3774-2"
         d="m 124.80371,955.76967 49.84495,-61.73946 10.25903,17.28629 z"
         style="fill:#ffffff;stroke:none"
         sodipodi:nodetypes="cccc" />
    </g>
    <g
       style="font-style:normal;font-variant:normal;font-weight:normal;font-stretch:normal;font-size:238.22581482px;line-height:100%;font-family:'Arial Black';-inkscape-font-specification:'Arial Black, ';text-align:start;letter-spacing:0px;word-spacing:0px;text-anchor:start;fill:#66b966;fill-opacity:1;stroke:#49a049;stroke-width:7;stroke-linecap:butt;stroke-linejoin:miter;stroke-miterlimit:4;stroke-dasharray:none;stroke-opacity:1"
       id="text4171-1">
      <path
         d="m 67.399668,619.88322 52.693502,0 0,59.67277 57.57899,0 0,-59.67277 52.92615,0 0,170.52688 -52.92615,0 0,-68.97848 -57.57899,0 0,68.97848 -52.693502,0 0,-170.52688 z"
         style="line-height:100%;fill:#66b966;fill-opacity:1;stroke:#49a049;stroke-width:7;stroke-miterlimit:4;stroke-dasharray:none;stroke-opacity:1"
         id="path4153" />
      <path
         d="m 256.8869,728.9925 q 0,-28.26605 19.07667,-46.52848 19.07668,-18.37875 51.5303,-18.37875 37.10646,0 56.06681,21.51943 15.23808,17.33185 15.23808,42.68988 0,28.49869 -18.96035,46.76112 -18.84404,18.1461 -52.22822,18.1461 -29.77823,0 -48.15698,-15.12175 Q 256.8869,759.35234 256.8869,728.9925 Z m 47.45905,-0.11632 q 0,16.51761 6.63031,24.42745 6.74662,7.90984 16.86657,7.90984 10.23626,0 16.75025,-7.79352 6.63031,-7.79352 6.63031,-25.00905 0,-16.05233 -6.63031,-23.84585 -6.63031,-7.90984 -16.40129,-7.90984 -10.35258,0 -17.09921,8.02616 -6.74663,7.90984 -6.74663,24.19481 z"
         style="line-height:100%;fill:#66b966;fill-opacity:1;stroke:#49a049;stroke-width:7;stroke-miterlimit:4;stroke-dasharray:none;stroke-opacity:1"
         id="path4155" />
      <path
         d="m 413.45524,756.21166 46.99377,-4.4202 q 2.90803,8.37512 8.14248,11.98108 5.23445,3.60596 13.95854,3.60596 9.53834,0 14.7728,-4.07124 4.07124,-3.02436 4.07124,-7.56088 0,-5.11813 -5.35078,-7.90984 -3.8386,-1.97746 -20.35621,-4.88549 -24.66009,-4.30389 -34.31475,-7.90985 -9.53834,-3.72227 -16.16865,-12.44636 -6.51398,-8.72409 -6.51398,-19.89093 0,-12.21372 7.09559,-21.05414 7.09559,-8.84041 19.54196,-13.14429 12.44637,-4.42021 33.38419,-4.42021 22.10102,0 32.56993,3.37332 10.58523,3.37331 17.5645,10.46891 7.09559,7.09559 11.74844,19.19299 l -44.89998,4.42021 q -1.74482,-5.93238 -5.81606,-8.72409 -5.58342,-3.72228 -13.49326,-3.72228 -8.02616,0 -11.74844,2.90803 -3.60596,2.79171 -3.60596,6.86295 0,4.53653 4.65285,6.86295 4.65285,2.32643 20.23989,4.18757 23.6132,2.67538 35.129,7.44455 11.5158,4.76917 17.5645,13.60958 6.16503,8.84041 6.16503,19.42564 0,10.70155 -6.51399,20.8215 -6.39767,10.11994 -20.35621,16.16864 -13.84222,5.93239 -37.80439,5.93239 -33.84947,0 -48.2733,-9.65466 -14.30751,-9.65466 -18.37875,-27.45181 z"
         style="line-height:100%;fill:#66b966;fill-opacity:1;stroke:#49a049;stroke-width:7;stroke-miterlimit:4;stroke-dasharray:none;stroke-opacity:1"
         id="path4157" />
      <path
         d="m 624.5782,619.88322 0,46.99376 26.05595,0 0,34.5474 -26.05595,0 0,43.85309 q 0,7.90984 1.51218,10.46891 2.32642,3.95492 8.14248,3.95492 5.23446,0 14.65647,-3.02435 l 3.48964,32.68625 q -17.5645,3.8386 -32.80258,3.8386 -17.68082,0 -26.05595,-4.53652 -8.37512,-4.53653 -12.44637,-13.7259 -3.95492,-9.3057 -3.95492,-30.01087 l 0,-43.50413 -17.44818,0 0,-34.5474 17.44818,0 0,-22.68263 47.45905,-24.31113 z"
         style="line-height:100%;fill:#66b966;fill-opacity:1;stroke:#49a049;stroke-width:7;stroke-miterlimit:4;stroke-dasharray:none;stroke-opacity:1"
         id="path4159" />
      <path
         d="m 810.22685,740.39198 -94.9181,0 q 1.27953,11.39948 6.16502,16.98289 6.86295,8.02617 17.91347,8.02617 6.97927,0 13.26061,-3.48964 3.8386,-2.2101 8.25881,-7.79352 l 46.6448,4.30389 q -10.70155,18.61139 -25.82331,26.75387 -15.12175,8.02616 -43.3878,8.02616 -24.54378,0 -38.61864,-6.86295 -14.07487,-6.97927 -23.38056,-21.9847 -9.18938,-15.12176 -9.18938,-35.47797 0,-28.96398 18.49507,-46.87744 18.61139,-17.91347 51.29765,-17.91347 26.52123,0 41.87563,8.02617 15.3544,8.02616 23.38056,23.26424 8.02617,15.23807 8.02617,39.66552 l 0,5.35078 z m -48.15698,-22.68263 q -1.39585,-13.72591 -7.44456,-19.65829 -5.93238,-5.93238 -15.70336,-5.93238 -11.28315,0 -18.02978,8.95673 -4.30389,5.58342 -5.4671,16.63394 l 46.6448,0 z"
         style="line-height:100%;fill:#66b966;fill-opacity:1;stroke:#49a049;stroke-width:7;stroke-miterlimit:4;stroke-dasharray:none;stroke-opacity:1"
         id="path4161" />
      <path
         d="m 962.25863,619.88322 0,170.52688 -44.31837,0 0,-18.26243 q -9.3057,11.63212 -16.9829,15.70336 -10.23626,5.35077 -22.79895,5.35077 -25.2417,0 -38.61864,-19.19299 -13.26062,-19.193 -13.26062,-46.6448 0,-30.7088 14.65647,-46.99377 14.7728,-16.28497 37.45543,-16.28497 11.05051,0 20.00725,3.72228 9.07305,3.72228 16.05232,11.16684 l 0,-59.09117 47.80801,0 z m -47.45905,108.41136 q 0,-14.54015 -6.16502,-21.63575 -6.16502,-7.21191 -15.58704,-7.21191 -8.2588,0 -13.84222,6.86295 -5.58342,6.86295 -5.58342,23.0316 0,15.12175 5.69974,22.21734 5.81606,6.97928 14.30751,6.97928 9.07305,0 15.12175,-7.0956 6.0487,-7.09559 6.0487,-23.14791 z"
         style="line-height:100%;fill:#66b966;fill-opacity:1;stroke:#49a049;stroke-width:7;stroke-miterlimit:4;stroke-dasharray:none;stroke-opacity:1"
         id="path4163" />
      <path
         d="m 152.89575,966.86935 0,-35.47796 81.42484,0 0,72.70071 q -23.38056,15.936 -41.41035,21.7521 -17.91346,5.6997 -42.57356,5.6997 -30.35983,0 -49.55283,-10.3525 -19.076675,-10.3526 -29.661904,-30.82516 -10.468908,-20.47254 -10.468908,-46.99377 0,-27.91709 11.515799,-48.50594 11.515798,-20.70517 33.733143,-31.40672 17.33186,-8.25881 46.6448,-8.25881 28.26606,0 42.2246,5.11814 14.07487,5.11813 23.26424,15.936 9.3057,10.70155 13.95854,27.21916 l -50.83236,9.07305 q -3.14067,-9.65466 -10.70155,-14.77279 -7.44456,-5.11813 -19.07668,-5.11813 -17.33186,0 -27.68444,12.0974 -10.23627,11.98109 -10.23627,38.03704 0,27.68444 10.35259,39.5492 10.46891,11.86477 29.0803,11.86477 8.84041,0 16.86657,-2.55907 8.02617,-2.55907 18.37875,-8.72409 l 0,-16.05233 -35.24532,0 z"
         style="line-height:100%;fill:#66b966;fill-opacity:1;stroke:#49a049;stroke-width:7;stroke-miterlimit:4;stroke-dasharray:none;stroke-opacity:1"
         id="path4165" />
      <path
         d="m 264.44778,858.10903 47.34272,0 0,32.22097 -47.34272,0 0,-32.22097 z m 0,46.99377 47.34272,0 0,123.5331 -47.34272,0 0,-123.5331 z"
         style="line-height:100%;fill:#66b966;fill-opacity:1;stroke:#49a049;stroke-width:7;stroke-miterlimit:4;stroke-dasharray:none;stroke-opacity:1"
         id="path4167" />
      <path
         d="m 399.38036,858.10903 0,46.99377 26.05595,0 0,34.54739 -26.05595,0 0,43.85309 q 0,7.90985 1.51217,10.46891 2.32643,3.95492 8.14249,3.95492 5.23445,0 14.65647,-3.02435 l 3.48963,32.68624 q -17.5645,3.8386 -32.80257,3.8386 -17.68083,0 -26.05595,-4.5365 -8.37513,-4.5365 -12.44637,-13.7259 -3.95492,-9.3057 -3.95492,-30.01088 l 0,-43.50413 -17.44818,0 0,-34.54739 17.44818,0 0,-22.68264 47.45905,-24.31113 z"
         style="line-height:100%;fill:#66b966;fill-opacity:1;stroke:#49a049;stroke-width:7;stroke-miterlimit:4;stroke-dasharray:none;stroke-opacity:1"
         id="path4169" />
      <path
         d="m 585.029,978.61779 -94.9181,0 q 1.27954,11.39948 6.16503,16.9829 6.86295,8.02621 17.91346,8.02621 6.97927,0 13.26062,-3.4897 3.8386,-2.21009 8.2588,-7.7935 l 46.6448,4.30388 q -10.70155,18.61142 -25.8233,26.75392 -15.12176,8.0261 -43.38781,8.0261 -24.54377,0 -38.61864,-6.8629 -14.07486,-6.9793 -23.38056,-21.9847 -9.18937,-15.12179 -9.18937,-35.478 0,-28.96398 18.49507,-46.87745 18.61139,-17.91346 51.29765,-17.91346 26.52123,0 41.87563,8.02616 15.3544,8.02616 23.38056,23.26424 8.02616,15.23808 8.02616,39.66553 l 0,5.35077 z m -48.15698,-22.68263 q -1.39585,-13.7259 -7.44455,-19.65828 -5.93238,-5.93238 -15.70336,-5.93238 -11.28316,0 -18.02979,8.95673 -4.30388,5.58342 -5.4671,16.63393 l 46.6448,0 z"
         style="line-height:100%;fill:#66b966;fill-opacity:1;stroke:#49a049;stroke-width:7;stroke-miterlimit:4;stroke-dasharray:none;stroke-opacity:1"
         id="path4171" />
      <path
         d="m 650.16888,945.11729 -45.24894,-4.76917 q 2.55906,-11.86476 7.32823,-18.61139 4.88549,-6.86295 13.95855,-11.86476 6.51398,-3.60596 17.91346,-5.58342 11.39948,-1.97746 24.6601,-1.97746 21.28677,0 34.19843,2.44274 12.91165,2.32643 21.51942,9.88731 6.0487,5.23445 9.53834,14.88911 3.48963,9.53834 3.48963,18.26243 l 0,54.55462 q 0,8.7241 1.04689,13.7259 1.16322,4.8855 4.88549,12.5627 l -44.43469,0 q -2.67539,-4.7692 -3.48964,-7.2119 -0.81425,-2.5591 -1.6285,-7.9098 -9.30569,8.9567 -18.49507,12.7953 -12.56269,5.1181 -29.19662,5.1181 -22.10103,0 -33.61682,-10.2362 -11.39948,-10.2363 -11.39948,-25.24175 0,-14.07486 8.2588,-23.14792 8.25881,-9.07305 30.47616,-13.49325 26.63755,-5.35078 34.54739,-7.44456 7.90985,-2.2101 16.75026,-5.69974 0,-8.72409 -3.60596,-12.21373 -3.60596,-3.48963 -12.67901,-3.48963 -11.63212,0 -17.44818,3.72228 -4.53653,2.90803 -7.32824,10.93419 z m 41.06139,24.89274 q -9.77098,3.48963 -20.35621,6.16502 -14.42383,3.8386 -18.26243,7.56088 -3.95492,3.8386 -3.95492,8.72409 0,5.58341 3.8386,9.18938 3.95492,3.4896 11.5158,3.4896 7.90984,0 14.65647,-3.8386 6.86295,-3.83857 9.65466,-9.30567 2.90803,-5.58342 2.90803,-14.42383 l 0,-7.56087 z"
         style="line-height:100%;fill:#66b966;fill-opacity:1;stroke:#49a049;stroke-width:7;stroke-miterlimit:4;stroke-dasharray:none;stroke-opacity:1"
         id="path4173" />
    </g>
  </g>
</svg>
